%YAML 1.1
%TAG !u! tag:unity3d.com,2011:
--- !u!687078895 &4343727234628468602
SpriteAtlas:
  m_ObjectHideFlags: 0
  m_CorrespondingSourceObject: {fileID: 0}
  m_PrefabInstance: {fileID: 0}
  m_PrefabAsset: {fileID: 0}
  m_Name: New Sprite Atlas
  m_EditorData:
    serializedVersion: 2
    textureSettings:
      serializedVersion: 2
      anisoLevel: 1
      compressionQuality: 50
      maxTextureSize: 2048
      textureCompression: 0
      filterMode: 1
      generateMipMaps: 0
      readable: 0
      crunchedCompression: 0
      sRGB: 1
    platformSettings: []
    packingSettings:
      serializedVersion: 2
      padding: 4
      blockOffset: 1
      allowAlphaSplitting: 0
      enableRotation: 1
      enableTightPacking: 1
    variantMultiplier: 1
    packables:
    - {fileID: 2800000, guid: 4b67e8643426b3348851baaf6b154ade, type: 3}
    - {fileID: 2800000, guid: 9fbe9e506b397e34ab5180700c5867e8, type: 3}
    bindAsDefault: 1
  m_MasterAtlas: {fileID: 0}
  m_PackedSprites:
  - {fileID: 21300000, guid: 9fbe9e506b397e34ab5180700c5867e8, type: 3}
  - {fileID: -4487905793816226087, guid: 4b67e8643426b3348851baaf6b154ade, type: 3}
  - {fileID: -8859866671442662349, guid: 4b67e8643426b3348851baaf6b154ade, type: 3}
  - {fileID: 3534224892800603463, guid: 4b67e8643426b3348851baaf6b154ade, type: 3}
  - {fileID: -4598818665640778933, guid: 4b67e8643426b3348851baaf6b154ade, type: 3}
  - {fileID: -1442444168327756817, guid: 4b67e8643426b3348851baaf6b154ade, type: 3}
  - {fileID: -6809183370740523197, guid: 4b67e8643426b3348851baaf6b154ade, type: 3}
  - {fileID: -2316997613753358712, guid: 4b67e8643426b3348851baaf6b154ade, type: 3}
  - {fileID: -9127855860364935585, guid: 4b67e8643426b3348851baaf6b154ade, type: 3}
  - {fileID: 8589820864440875606, guid: 4b67e8643426b3348851baaf6b154ade, type: 3}
  - {fileID: 5306332505821299864, guid: 4b67e8643426b3348851baaf6b154ade, type: 3}
  - {fileID: 353574922125490493, guid: 4b67e8643426b3348851baaf6b154ade, type: 3}
  - {fileID: -5032753707227133640, guid: 4b67e8643426b3348851baaf6b154ade, type: 3}
  - {fileID: -4461900196915277990, guid: 4b67e8643426b3348851baaf6b154ade, type: 3}
  - {fileID: 4150149260461333499, guid: 4b67e8643426b3348851baaf6b154ade, type: 3}
  - {fileID: 6911129880535850409, guid: 4b67e8643426b3348851baaf6b154ade, type: 3}
  - {fileID: 5912537884802222423, guid: 4b67e8643426b3348851baaf6b154ade, type: 3}
  - {fileID: -617719238096277610, guid: 4b67e8643426b3348851baaf6b154ade, type: 3}
  - {fileID: -4109227322087002688, guid: 4b67e8643426b3348851baaf6b154ade, type: 3}
  - {fileID: -3033505275065605228, guid: 4b67e8643426b3348851baaf6b154ade, type: 3}
  - {fileID: -7001835265913501530, guid: 4b67e8643426b3348851baaf6b154ade, type: 3}
  - {fileID: -5691589307790089657, guid: 4b67e8643426b3348851baaf6b154ade, type: 3}
  - {fileID: -8878795292566586336, guid: 4b67e8643426b3348851baaf6b154ade, type: 3}
  - {fileID: 3085042563047269001, guid: 4b67e8643426b3348851baaf6b154ade, type: 3}
  - {fileID: -2493349011876410257, guid: 4b67e8643426b3348851baaf6b154ade, type: 3}
  - {fileID: 5969788049613808817, guid: 4b67e8643426b3348851baaf6b154ade, type: 3}
  - {fileID: -3482495461235003848, guid: 4b67e8643426b3348851baaf6b154ade, type: 3}
  - {fileID: -6467323152658972500, guid: 4b67e8643426b3348851baaf6b154ade, type: 3}
  - {fileID: 5246825069748674944, guid: 4b67e8643426b3348851baaf6b154ade, type: 3}
  - {fileID: -316811642830380436, guid: 4b67e8643426b3348851baaf6b154ade, type: 3}
  - {fileID: 3195835595132019545, guid: 4b67e8643426b3348851baaf6b154ade, type: 3}
  - {fileID: 4593059109714738767, guid: 4b67e8643426b3348851baaf6b154ade, type: 3}
  m_PackedSpriteNamesToIndex:
  - Corner Map Sprite-01
  - Tilemap Test Plain-01_25
  - Tilemap Test Plain-01_26
  - Tilemap Test Plain-01_27
  - Tilemap Test Plain-01_20
  - Tilemap Test Plain-01_21
  - Tilemap Test Plain-01_22
  - Tilemap Test Plain-01_23
  - Tilemap Test Plain-01_30
  - Tilemap Test Plain-01_28
  - Tilemap Test Plain-01_29
  - Tilemap Test Plain-01_19
  - Tilemap Test Plain-01_18
  - Tilemap Test Plain-01_15
  - Tilemap Test Plain-01_14
  - Tilemap Test Plain-01_17
  - Tilemap Test Plain-01_16
  - Tilemap Test Plain-01_11
  - Tilemap Test Plain-01_10
  - Tilemap Test Plain-01_13
  - Tilemap Test Plain-01_12
  - Tilemap Test Plain-01_8
  - Tilemap Test Plain-01_9
  - Tilemap Test Plain-01_6
  - Tilemap Test Plain-01_7
  - Tilemap Test Plain-01_4
  - Tilemap Test Plain-01_5
  - Tilemap Test Plain-01_2
  - Tilemap Test Plain-01_3
  - Tilemap Test Plain-01_0
  - Tilemap Test Plain-01_1
  - Tilemap Test Plain-01_24
  m_Tag: New Sprite Atlas
  m_IsVariant: 0
